## Interface: 90002
## Version: 9.0.2b
## Title: BaikActionBar
## Author: Nikpmup
## Notes: Blizzard ActionBar replacement
## Dependencies: BaikCore
## OptionalDeps: Ace3
## X-Embeds: Ace3
BaikActionBar.lua
Include.xml
